Option     Filename  Type         Description
------------------------------------------------------------
  -f     grompp.mdp  Input, Opt.  grompp input file with MD parameters
 -po      mdout.mdp  Output       grompp input file with MD parameters
  -c       conf.gro  Input        Generic structure: gro g96 pdb tpr tpb tpa
                                   xml
  -r       conf.gro  Input, Opt.  Generic structure: gro g96 pdb tpr tpb tpa
                                   xml
 -rb       conf.gro  Input, Opt.  Generic structure: gro g96 pdb tpr tpb tpa
                                   xml
  -n      index.ndx  Input, Opt.  Index file
-deshuf  deshuf.ndx  Output, Opt. Index file
  -p      topol.top  Input        Topology file
 -pp  processed.top  Output, Opt. Topology file
  -o      topol.tpr  Output       Generic run input: tpr tpb tpa xml
  -t       traj.trr  Input, Opt.  Full precision trajectory: trr trj
  -e       ener.edr  Input, Opt.  Generic energy: edr ene

      Option   Type  Value  Description
------------------------------------------------------
      -[no]h   bool     no  Print help info and quit
      -[no]X   bool     no  Use dialog box GUI to edit command line options
       -nice    int      0  Set the nicelevel
      -[no]v   bool    yes  Be loud and noisy
       -time   real     -1  Take frame at or first after this time.
         -np    int      1  Generate statusfile for # nodes
-[no]shuffle   bool     no  Shuffle molecules over nodes
   -[no]sort   bool     no  Sort molecules according to X coordinate
-[no]rmvsbds   bool    yes  Remove constant bonded interactions with virtual
                            sites
       -load string         Releative load capacity of each node on a
                            parallel machine. Be sure to use quotes around
                            the string, which should contain a number for
                            each node
    -maxwarn    int     10  Number of warnings after which input processing
                            stops
-[no]check14   bool     no  Remove 1-4 interactions without Van der Waals
  -[no]renum   bool    yes  Renumber atomtypes and minimize number of
                            atomtypes

-------------------------------------------------------
Program grompp, VERSION 3.3.1
Source code file: futil.c, line: 340

File input/output error:
grompp.mdp
-------------------------------------------------------

"You Can Always Go On Ricky Lake" (Offspring)

