# update.lo - a libtool object file
# Generated by ltmain.sh - GNU libtool 1.5.26 (1.1220.2.492 2008/01/30 06:40:56)
#
# Please DO NOT delete this file!
# It is necessary for linking the library.

# Name of the PIC object.
